<?xml version="1.0" encoding="UTF-8"?>
<!-- Created with Inkscape (http://www.inkscape.org/) -->
<svg width="672" height="270" version="1.1" viewBox="0 0 672 270" xmlns="http://www.w3.org/2000/svg">
 <rect x="-103.52" y="280.49" width="0" height="153.44" fill="none" stroke="#000" stroke-linecap="round" stroke-linejoin="round"/>
 <g transform="translate(-3.0911 7.2189)" fill="#f60" fill-opacity=".99216" fill-rule="evenodd">
  <rect x="69.372" y="127.78" width="200" height="130"/>
  <path d="m169.37-2.2189 130 130h-260z"/>
 </g>
 <rect x="133.78" y="151.74" width="64.991" height="105.26" fill="#ffe600" fill-opacity=".99216" fill-rule="evenodd"/>
 <path d="m505.72 5-130 130h30v130h200v-130h30l-130-130zm-32.494 146.74h64.99v105.26h-64.99v-105.26z" fill="#f60" fill-opacity=".99216" fill-rule="evenodd"/>
 <path d="m331 142h-17.463v-14h17.463v-8.8333s27.471 15.368 27.471 15.833-27.471 15.833-27.471 15.833z" fill="none" stroke="#000" stroke-width="2"/>
</svg>
