<?xml version="1.0" encoding="UTF-8"?>
<!-- Created with Inkscape (http://www.inkscape.org/) -->
<svg width="672" height="240" version="1.1" viewBox="0 0 672 240" xmlns="http://www.w3.org/2000/svg">
 <g>
  <ellipse cx="106" cy="120" rx="100" ry="90" fill="#0cf"/>
  <path transform="translate(0 -30)" d="m542.58 259.76-21.173-74.368-73.266-24.719 64.186-43.118 0.86847-77.319 60.842 47.72 73.803-23.067-26.583 72.61 44.744 63.063-77.271-2.8444z" fill="#00d400"/>
  <rect x="236" y="30" width="200" height="180" fill="#f60"/>
 </g>
</svg>
