<?xml version="1.0" encoding="UTF-8" standalone="no"?>
<svg xmlns:rdf="http://www.w3.org/1999/02/22-rdf-syntax-ns#" xmlns="http://www.w3.org/2000/svg" version="1.1" xmlns:cc="http://creativecommons.org/ns#" xmlns:xlink="http://www.w3.org/1999/xlink" viewBox="0 0 23.025561 23.999948" xmlns:dc="http://purl.org/dc/elements/1.1/">
<metadata>
<rdf:RDF>
<cc:Work rdf:about="">
<dc:format>image/svg+xml</dc:format>
<dc:type rdf:resource="http://purl.org/dc/dcmitype/StillImage"/>
</cc:Work>
</rdf:RDF>
</metadata>
<defs>
<linearGradient id="j" y2="215.2099" xlink:href="#a" gradientUnits="userSpaceOnUse" x2="17.75236" gradientTransform="matrix(3.333119,0,0,1.671823,-155.1792,-171.7462)" y1="218.9795" x1="18.84686"/>
<linearGradient id="k" y2="209.2774" xlink:href="#b" gradientUnits="userSpaceOnUse" x2="14.01084" gradientTransform="matrix(2.750568,0,0,1.002646,-133.3919,-18.49926)" y1="203.3658" x1="10.04167"/>
<linearGradient id="f" y2="219.6793" xlink:href="#a" gradientUnits="userSpaceOnUse" x2="17.94699" gradientTransform="matrix(1.157292 0 0 .59969 -54.4347 64.92824)" y1="213.872" x1="15.74156"/>
<linearGradient id="g" y2="214.6554" xlink:href="#a" gradientUnits="userSpaceOnUse" x2="18.82314" gradientTransform="matrix(1.537676,0,0,1.000883,-61.45158,-22.13894)" y1="219.9305" x1="20.21689"/>
<linearGradient id="c" y2="219.4184" xlink:href="#a" gradientUnits="userSpaceOnUse" x2="19.38252" gradientTransform="matrix(1.525151 0 0 .933201 -44.88385 -23.1282)" y1="213.872" x1="15.74156"/>
<linearGradient id="a">
<stop stop-color="#fff" offset="0"/>
<stop stop-color="#98b6d3" offset="1"/>
</linearGradient>
<linearGradient id="b">
<stop stop-color="#5a5a5a" offset="0"/>
<stop offset="1"/>
</linearGradient>
<linearGradient id="d" y2="214.5512" xlink:href="#a" gradientUnits="userSpaceOnUse" x2="17.15024" gradientTransform="matrix(2.026443,0,0,1.557511,-54.13118,-158.6166)" y1="218.8883" x1="18.50864"/>
<linearGradient id="e" y2="209.2774" xlink:href="#b" gradientUnits="userSpaceOnUse" x2="14.01084" gradientTransform="matrix(2.114324,0,0,1.002646,-47.33758,-30.1841)" y1="203.3658" x1="10.04167"/>
<linearGradient id="i" y2="217.8234" xlink:href="#a" gradientUnits="userSpaceOnUse" x2="17.31054" gradientTransform="matrix(2.508587,0,0,1.001693,-139.9689,-26.31358)" y1="213.2164" x1="16.04734"/>
<linearGradient id="h" y2="209.2774" xlink:href="#b" gradientUnits="userSpaceOnUse" x2="14.01084" gradientTransform="matrix(1.373757 0 0 .715969 -52.92573 45.42126)" y1="203.3658" x1="10.04167"/>
</defs>
<g transform="matrix(1 0 0 .998006 45 -174.65105)">
<g stroke-linejoin="round" stroke-miterlimit="0" transform="translate(60.01222,-11.05555)">
<rect style="color:#000000" height="7.017632" width="22.00094" stroke="url(#k)" y="187.554" x="-104.4881" stroke-width="1.0009984" fill="none"/>
<rect style="color:#000000" fill-rule="evenodd" height="5.021792" width="20.00112" stroke="url(#i)" stroke-linecap="round" y="188.5476" x="-103.4882" stroke-width="1.0009996" fill="url(#j)"/>
</g>
<g stroke-linejoin="round" stroke-miterlimit="0" transform="matrix(.414065 0 0 .857422 -34.074234 28.713996)">
<rect style="color:#000000" height="7.017632" width="16.91182" stroke="url(#e)" y="175.8691" x="-25.11964" stroke-width="1.6799744" fill="none"/>
<rect style="color:#000000" fill-rule="evenodd" height="4.678422" width="12.16012" stroke="url(#c)" stroke-linecap="round" y="177.0416" x="-22.70454" stroke-width="1.6799736" fill="url(#d)"/>
</g>
<g stroke-linejoin="round" stroke-width=".9579424" stroke-miterlimit="0" transform="matrix(1.091916,0,0,1,-2.445911,-5.035654)">
<rect style="color:#000000" height="5.011148" width="10.98825" stroke="url(#h)" y="192.5597" x="-38.48989" fill="none"/>
<rect style="color:#000000" fill-rule="evenodd" height="3.006435" width="9.227168" stroke="url(#f)" stroke-linecap="round" y="193.5608" x="-37.60492" fill="url(#g)"/>
</g>
<rect style="color:#000000" height="16" width="16" y="175" x="-45" fill="none"/>
<path fill-rule="evenodd" d="m-44 196.543 3-2.505v2.0041l11-0.0001v1.0019h-11v2.004l-3-2.5049z"/>
<path d="m-27.45876 175.5271v23.0451" transform="translate(-17.01664 -.0261695)" stroke="#c80000" stroke-linecap="square" stroke-width="1.0009989" fill="none"/>
</g>
</svg>
