<?xml version="1.0" encoding="UTF-8" standalone="no"?>
<svg xmlns:rdf="http://www.w3.org/1999/02/22-rdf-syntax-ns#" xmlns="http://www.w3.org/2000/svg" version="1.1" xmlns:cc="http://creativecommons.org/ns#" xmlns:xlink="http://www.w3.org/1999/xlink" viewBox="0 0 24 23.999999" xmlns:dc="http://purl.org/dc/elements/1.1/">
<metadata>
<rdf:RDF>
<cc:Work rdf:about="">
<dc:format>image/svg+xml</dc:format>
<dc:type rdf:resource="http://purl.org/dc/dcmitype/StillImage"/>
</cc:Work>
</rdf:RDF>
</metadata>
<defs>
<linearGradient id="a" y2="92.00739" gradientUnits="userSpaceOnUse" x2="17.62963" y1="86.26574" x1="13.47978">
<stop stop-color="#4e6e90" offset="0"/>
<stop offset="1"/>
</linearGradient>
</defs>
<g transform="matrix(-1 0 0 .997921 -4.803 -80.518053)">
<path d="m-27.45876 175.5271v23.0451" transform="matrix(-1,0,0,1.000085,-38.76176,-94.35424)" stroke="#c80000" stroke-linecap="square" stroke-width="1.0009989" fill="none"/>
<rect transform="matrix(0,1,1,0,0,0)" height="24" width="24.05" y="-28.803" x="80.6858" fill="none"/>
<path d="m-11.9668 90.11223c-0.7787-0.67701-2.1025-0.43431-2.6929 0.34854-0.9754 1.18561-1.2575 2.70228-1.6164 4.12145-0.2662 1.21031-0.4334 2.4394-0.501 3.67318-0.7883-1.56023-1.6965-3.23606-1.713-4.99301-0.0218-0.88805 0.5124-1.6408 0.8692-2.42613 0.2947-0.65823-0.5167-1.34316-1.2125-1.13198-0.8522 0.16578-0.9942 1.10615-0.9696 1.78045 0.0896 2.00548 0.9121 3.97467 1.7444 5.80752 1.1795 2.42043 2.8678 4.66505 5.076 6.36815 0.8684 0.6241 3.0647 1.3479 4.1492 0.972 2-0.9952 2-2.9856 0-2.9856-0.7186-0.3241-2.5391 1.2439-3.2752 1.2192-1.2149-0.009-2.081-1.0514-2.4089-2.0443-0.3332-1.31356-0.0214-2.6707 0.1844-3.98039 0.3353-1.70254 0.7126-3.43957 1.5965-4.97978 0.1808-0.59819 1.5972-0.95372 0.7698-1.7493z"/>
<path d="m15.59046 88.20062c-0.53328 0-0.93563 0.09047-1.20702 0.2714-0.26665 0.18094-0.39997 0.44758-0.39997 0.79992 0 0.32378 0.10713 0.57852 0.3214 0.76421 0.21903 0.18094 0.52138 0.27141 0.90706 0.27141 0.4809 0 0.88562-0.17141 1.21417-0.51424 0.32853-0.34758 0.4928-0.78087 0.49281-1.29987v-0.29283h-1.32844m3.90676-0.96419v4.56384h-2.57832v-1.1856c-0.34283 0.48567-0.72851 0.8404-1.15703 1.06418-0.42854 0.21903-0.94992 0.32854-1.56414 0.32854-0.82849 0-1.50224-0.24045-2.02123-0.72136-0.51424-0.48566-0.77136-1.11417-0.77136-1.88553 0-0.938 0.3214-1.62603 0.96419-2.06409 0.64756-0.43804 1.66175-0.65707 3.04257-0.65708h1.507v-0.19998c-0.00001-0.40471-0.15952-0.69992-0.47853-0.88563-0.31902-0.19045-0.81659-0.28568-1.49271-0.28568-0.54757 0-1.05705 0.05476-1.52843 0.16427-0.47138 0.10952-0.90943 0.27379-1.31416 0.49281v-1.94981c0.54757-0.13332 1.09752-0.23331 1.64985-0.29998 0.55232-0.07141 1.10465-0.10712 1.65698-0.10713 1.44271 0.00001 2.48309 0.2857 3.12113 0.85706 0.64278 0.56662 0.96418 1.49034 0.96419 2.77116" fill="url(#a)" transform="scale(-1.036041 .965213)"/>
</g>
</svg>
