<?xml version="1.0" encoding="UTF-8" standalone="no"?>
<svg xmlns:rdf="http://www.w3.org/1999/02/22-rdf-syntax-ns#" xmlns="http://www.w3.org/2000/svg" version="1.1" xmlns:cc="http://creativecommons.org/ns#" viewBox="0 0 16.045805 16" xmlns:dc="http://purl.org/dc/elements/1.1/">
<metadata>
<rdf:RDF>
<cc:Work rdf:about="">
<dc:format>image/svg+xml</dc:format>
<dc:type rdf:resource="http://purl.org/dc/dcmitype/StillImage"/>
</cc:Work>
</rdf:RDF>
</metadata>
<g transform="translate(-759.9762,-55.0535)">
<rect height="16" width="16" y="55.0535" x="759.9762" fill="none"/>
<path stroke-linejoin="round" d="m761.9292 60.21135c-1.3234 4.58045 0.575 6.56847 0.863 6.63113 0.6244 0.13585 3.6939-0.81114 4.2558-1.49894-0.7024-0.7668-1.5244-1.24741-2.6209-1.99655-0.9558-0.653-2.1687-1.54649-2.4979-3.13564zm2.5287-1.19313c-0.2505 0.79624-0.1537 1.6448 0.242 2.34393 0.3352 0.59425 0.8545 1.02916 1.4624 1.31727 0.532 0.2465 1.1266 0.36704 1.7511 0.35988-1.4671-0.88543-2.3354-1.5733-2.9025-2.44951-0.5203-0.80386-0.5573-1.47454-0.553-1.57157zm2.7983-1.0336c-0.9659 2.04621 0.4165 2.77407 1.734 3.11108-1.3117-1.02013-1.9104-2.98174-1.734-3.11108zm3.5258-2.20259c-0.5765 0.33177-0.5058 1.38168-0.778 1.76289-0.5215 0.7302-1.0601 0.85177-0.7801 1.43544 0.3733 0.77825 0.5096 0.37663 1.516 0.47373 0.3092 0.0298 1.2269 0.97451 1.5502 0.91628-0.9834-1.54422-1.5449-2.97001-1.5081-4.58834z" stroke="#4d4d4d" fill="#fff">
<desc>inkscape:path-effect=&quot;#path-effect9860&quot; striped for faster load</desc>
</path>
<path fill="none" stroke="#008000" d="m762.5 68.5c0.8058-6.48429 5.5747-9.9922 11-11"/>
<rect stroke-linejoin="round" style="color:#000000" stroke-width="1.0000007" fill-rule="evenodd" fill-opacity=".3921569" rx="1.011026" transform="translate(805.0318 -128.6983)" ry="1.011026" width="2.022052" stroke="#00f" stroke-linecap="round" stroke-miterlimit="0" y="185.1983" x="-31.53185" height="2.026662" fill="#fff"/>
<rect stroke-linejoin="round" style="color:#000000" stroke-width="1.0000007" fill-rule="evenodd" fill-opacity=".3921569" rx="1.011026" transform="translate(793.0318 -116.6983)" ry="1.011026" width="2.022052" stroke="#00f" stroke-linecap="round" stroke-miterlimit="0" y="185.1983" x="-31.53185" height="2.026662" fill="#fff"/>
</g>
</svg>
