<?xml version="1.0" encoding="UTF-8" standalone="no"?>
<svg xmlns:rdf="http://www.w3.org/1999/02/22-rdf-syntax-ns#" xmlns="http://www.w3.org/2000/svg" version="1.1" xmlns:cc="http://creativecommons.org/ns#" xmlns:xlink="http://www.w3.org/1999/xlink" viewBox="0 0 16.000858 16.001566" xmlns:dc="http://purl.org/dc/elements/1.1/">
<metadata>
<rdf:RDF>
<cc:Work rdf:about="">
<dc:format>image/svg+xml</dc:format>
<dc:type rdf:resource="http://purl.org/dc/dcmitype/StillImage"/>
</cc:Work>
</rdf:RDF>
</metadata>
<defs>
<linearGradient id="d" y2="46.339" gradientUnits="userSpaceOnUse" x2="414.2602" gradientTransform="matrix(1.001797 0 0 .906445 -290.1978 295.2598)" y1="46.33899" x1="404.6787">
<stop stop-color="#fff" offset="0"/>
<stop stop-color="#98b6d3" offset="1"/>
</linearGradient>
<linearGradient id="b" y2="311.8198" xlink:href="#a" gradientUnits="userSpaceOnUse" x2="696.8668" gradientTransform="translate(-.999998 -.937496)" y1="306.0704" x1="693.4026"/>
<linearGradient id="a">
<stop stop-color="#5a5a5a" offset="0"/>
<stop offset="1"/>
</linearGradient>
<linearGradient id="c" y2="311.079" xlink:href="#a" gradientUnits="userSpaceOnUse" x2="698.2679" gradientTransform="translate(-.999998 -.937496)" y1="303.7007" x1="693.279"/>
<linearGradient id="e" y2="350.1636" gradientUnits="userSpaceOnUse" x2="130.3522" y1="343.258" x1="121.1177">
<stop stop-color="#fffdf8" offset="0"/>
<stop stop-color="#cdccc7" offset="1"/>
</linearGradient>
</defs>
<g transform="translate(-9.9992165,-127.99763)">
<g stroke-linejoin="round" stroke="#000" stroke-linecap="round" transform="matrix(1 0 0 .996869 -105.0577 -206.2098)" fill-rule="evenodd">
<rect style="color:#000000" height="11.99987" width="14.99917" y="338.8083" x="115.5577" stroke-width="1.0015693" fill="url(#e)"/>
<rect style="color:#000000" height="3.011261" width="14.99819" y="335.7579" x="115.5588" stroke-width="1.0015692" fill="url(#d)"/>
</g>
<g transform="matrix(1,0,0,1.066667,-679.5,-193.0001)" fill="none">
<rect height="10.31249" width="11" y="303.75" x="691.5"/>
<path stroke-linejoin="round" d="m696.7189 305.998-0.7189-0.4042-4 8h10v-0.9375" stroke="url(#c)" stroke-linecap="round" stroke-width=".9682457"/>
<path d="m694.5 309.375c1.5 0.4688 3 2.3438 2.5 4.2188" stroke="url(#b)" stroke-linecap="round" stroke-width=".9682457"/>
</g>
</g>
</svg>
