<?xml version="1.0" encoding="UTF-8" standalone="no"?>
<svg xmlns:rdf="http://www.w3.org/1999/02/22-rdf-syntax-ns#" xmlns="http://www.w3.org/2000/svg" version="1.1" xmlns:cc="http://creativecommons.org/ns#" xmlns:xlink="http://www.w3.org/1999/xlink" viewBox="0 0 24.018898 23.999001" xmlns:dc="http://purl.org/dc/elements/1.1/">
<metadata>
<rdf:RDF>
<cc:Work rdf:about="">
<dc:format>image/svg+xml</dc:format>
<dc:type rdf:resource="http://purl.org/dc/dcmitype/StillImage"/>
</cc:Work>
</rdf:RDF>
</metadata>
<defs>
<linearGradient id="b" y2="219.0135" xlink:href="#d" gradientUnits="userSpaceOnUse" x2="20.6591" gradientTransform="matrix(.669342 0 0 1.001998 -36.88229 -39.41679)" y1="215.0097" x1="17.62746"/>
<linearGradient id="a" y2="213.663" xlink:href="#d" gradientUnits="userSpaceOnUse" x2="15.9855" gradientTransform="matrix(.503763 0 0 .600361 -33.82784 47.74752)" y1="219.5232" x1="19.47374"/>
<linearGradient id="d">
<stop stop-color="#ffbf00" offset="0"/>
<stop stop-color="#fff" offset="1"/>
</linearGradient>
<linearGradient id="c" y2="218.6017" gradientUnits="userSpaceOnUse" x2="20.61538" gradientTransform="matrix(.751237 0 0 1.001998 -38.40231 -39.41679)" y1="212.6297" x1="13.84434">
<stop stop-color="#5a5a5a" offset="0"/>
<stop offset="1"/>
</linearGradient>
</defs>
<g transform="translate(-1125.0276 -195.04424)">
<rect style="color:#000000" height="15.9681" width="16" y="195.0446" x="1125.038" fill="none"/>
<g stroke-linejoin="round" stroke-miterlimit="0" transform="matrix(1 0 0 .998006 1153.039 22.37222)">
<rect style="color:#000000" height="5.011291" width="6.008899" stroke="url(#c)" y="175.5202" x="-27.50193" stroke-width="1.0009987" fill="none"/>
<rect style="color:#000000" fill-rule="evenodd" height="3.009787" width="4.016531" stroke="url(#a)" stroke-linecap="round" y="176.5235" x="-26.50193" stroke-width="1.0009992" fill="url(#b)"/>
</g>
<g stroke-linejoin="round" stroke-miterlimit="0" transform="matrix(1 0 0 .998006 1165.03 20.37352)">
<rect style="color:#000000" height="5.011291" width="6.008899" stroke="url(#c)" y="175.5202" x="-27.50193" stroke-width="1.0009987" fill="none"/>
<rect style="color:#000000" fill-rule="evenodd" height="3.009787" width="4.016531" stroke="url(#a)" stroke-linecap="round" y="176.5235" x="-26.50193" stroke-width="1.0009992" fill="url(#b)"/>
</g>
<g stroke-linejoin="round" stroke-miterlimit="0" transform="matrix(1 0 0 .998006 1170.039 27.37352)">
<rect style="color:#000000" height="5.011291" width="6.008899" stroke="url(#c)" y="175.5202" x="-27.50193" stroke-width="1.0009987" fill="none"/>
<rect style="color:#000000" fill-rule="evenodd" height="3.009787" width="4.016531" stroke="url(#a)" stroke-linecap="round" y="176.5235" x="-26.50193" stroke-width="1.0009992" fill="url(#b)"/>
</g>
<g stroke-linejoin="round" stroke-miterlimit="0" transform="matrix(1 0 0 .998006 1162.03 30.37222)">
<rect style="color:#000000" height="5.011291" width="6.008899" stroke="url(#c)" y="175.5202" x="-27.50193" stroke-width="1.0009987" fill="none"/>
<rect style="color:#000000" fill-rule="evenodd" height="3.009787" width="4.016531" stroke="url(#a)" stroke-linecap="round" y="176.5235" x="-26.50193" stroke-width="1.0009992" fill="url(#b)"/>
</g>
<g stroke-linejoin="round" stroke-miterlimit="0" transform="matrix(1 0 0 .998006 1163.03 37.37222)">
<rect style="color:#000000" height="5.011291" width="6.008899" stroke="url(#c)" y="175.5202" x="-27.50193" stroke-width="1.0009987" fill="none"/>
<rect style="color:#000000" fill-rule="evenodd" height="3.009787" width="4.016531" stroke="url(#a)" stroke-linecap="round" y="176.5235" x="-26.50193" stroke-width="1.0009992" fill="url(#b)"/>
</g>
<g stroke-linejoin="round" stroke-miterlimit="0" transform="matrix(1 0 0 .998006 1153.03 38.37222)">
<rect style="color:#000000" height="5.011291" width="6.008899" stroke="url(#c)" y="175.5202" x="-27.50193" stroke-width="1.0009987" fill="none"/>
<rect style="color:#000000" fill-rule="evenodd" height="3.009787" width="4.016531" stroke="url(#a)" stroke-linecap="round" y="176.5235" x="-26.50193" stroke-width="1.0009992" fill="url(#b)"/>
</g>
</g>
</svg>
