<?xml version="1.0" encoding="UTF-8"?>
<svg version="1.1" viewBox="0 0 24 24" xmlns="http://www.w3.org/2000/svg">
<defs>
<linearGradient id="a" x1="104.88" x2="111.51" y1="220.94" y2="230.8" gradientTransform="matrix(1.1336 0 0 1.1334 339.57 -131.41)" gradientUnits="userSpaceOnUse">
<stop stop-color="#f8d8c8" offset="0"/>
<stop stop-color="#eb8654" offset="1"/>
</linearGradient>
<linearGradient id="b" x1="464.06" x2="456.44" y1="138.45" y2="132.28" gradientUnits="userSpaceOnUse">
<stop stop-color="#00e" offset="0"/>
<stop stop-color="#88f" offset="1"/>
</linearGradient>
</defs>
<g transform="translate(-450,-115)">
<rect x="450" y="115" width="24" height="24" color="#000000" fill="none"/>
<g transform="rotate(30 462.62 127.47)">
<rect x="456.51" y="117.51" width="10.992" height="18.992" color="#000000" fill="url(#a)" fill-rule="evenodd"/>
<rect x="456.51" y="129.83" width="10.992" height="6.6684" color="#000000" fill="url(#b)" fill-rule="evenodd"/>
<rect x="456.51" y="117.51" width="10.992" height="18.992" color="#000000" fill="none" stroke="#000" stroke-linejoin="round" stroke-miterlimit="0"/>
</g>
</g>
<path d="m0 22.667h6.6667m9.3333 0h8" fill="none" stroke="#000" stroke-width="1px"/>
</svg>
