<?xml version="1.0" encoding="UTF-8" standalone="no"?>
<svg xmlns:rdf="http://www.w3.org/1999/02/22-rdf-syntax-ns#" xmlns="http://www.w3.org/2000/svg" version="1.0" xmlns:cc="http://creativecommons.org/ns#" viewBox="0 0 96 96" xmlns:dc="http://purl.org/dc/elements/1.1/">
<defs>
<filter id="a" filterRes="256">
<feGaussianBlur stdDeviation="10.0437" result="result0" in="SourceGraphic"/>
<feDiffuseLighting lighting-color="#ffffff" diffuseConstant="1" surfaceScale="10" result="result1" in="result0">
<feDistantLight elevation="45" azimuth="205"/>
</feDiffuseLighting>
<feSpecularLighting lighting-color="#ffffff" specularConstant="0.5" result="result3" specularExponent="20" in="result0" surfaceScale="20">
<feDistantLight elevation="45" azimuth="205"/>
</feSpecularLighting>
<feComposite in="result1" in2="SourceGraphic" k3="0" k2="0" k1="1" result="result2" k4="0" operator="arithmetic"/>
<feComposite in="result2" in2="result3" k3="1" k2="1" k1="0" result="result4" k4="0" operator="arithmetic"/>
<feComposite operator="in" in2="SourceAlpha" in="result4"/>
</filter>
</defs>
<metadata>
<rdf:RDF>
<cc:Work rdf:about="">
<dc:format>image/svg+xml</dc:format>
<dc:type rdf:resource="http://purl.org/dc/dcmitype/StillImage"/>
<cc:license rdf:resource="http://creativecommons.org/licenses/by-sa/3.0/"/>
<dc:title>Lighting effects example</dc:title>
<dc:date>18 Jan 2008</dc:date>
<dc:creator>
<cc:Agent>
<dc:title>Niko Kiirala. Derived by Felipe Sanches</dc:title>
</cc:Agent>
</dc:creator>
<dc:rights>
<cc:Agent>
<dc:title>Copyright 2007 Niko Kiirala, Felipe Sanches licensed under Creatice Commons by-sa 3.0</dc:title>
</cc:Agent>
</dc:rights>
<dc:subject>
<rdf:Bag>
<rdf:li>feDiffuseLighting</rdf:li>
<rdf:li>feSpecularLighting</rdf:li>
<rdf:li>light</rdf:li>
<rdf:li>lighting effects</rdf:li>
</rdf:Bag>
</dc:subject>
<dc:description>An example, how to make metallic-looking objects with SVG lighting effects</dc:description>
<dc:publisher>
<cc:Agent>
<dc:title>Felipe Corrêa da Silva Sanches</dc:title>
</cc:Agent>
</dc:publisher>
<dc:identifier/>
<dc:source/>
<dc:relation/>
<dc:language/>
<dc:coverage/>
<dc:contributor>
<cc:Agent>
<dc:title/>
</cc:Agent>
</dc:contributor>
</cc:Work>
<cc:License rdf:about="http://creativecommons.org/licenses/by-sa/3.0/">
<cc:permits rdf:resource="http://creativecommons.org/ns#Reproduction"/>
<cc:permits rdf:resource="http://creativecommons.org/ns#Distribution"/>
<cc:requires rdf:resource="http://creativecommons.org/ns#Notice"/>
<cc:requires rdf:resource="http://creativecommons.org/ns#Attribution"/>
<cc:permits rdf:resource="http://creativecommons.org/ns#DerivativeWorks"/>
<cc:requires rdf:resource="http://creativecommons.org/ns#ShareAlike"/>
</cc:License>
</rdf:RDF>
</metadata>
<g fill-rule="evenodd">
<path d="m121.53125 18.281251l-5.875 12.34375-28.09375 59.1875-64.375 12.312499-13.4375 2.5625 9.9375 9.40625 47.625 45.03125-8.1875 65-1.71875 13.59375 12-6.5625 57.53125-31.40625 59.3125 27.90625 12.375 5.8125-2.5-13.4375-12.09375-64.375 44.875-47.8125 9.34375-9.968748-13.5625-1.78125-65-8.40625-31.59375-57.437501-6.5625-11.96875zm0.90625 30.718751l26.71875 48.531249 1.6875 3.124999 3.53125 0.4375 54.9375 7.15625-37.90625 40.375-2.4375 2.59375 0.65625 3.5 10.1875 54.4375-50.125-23.5625-3.21875-1.5-3.125 1.6875-48.625 26.5625 6.9375-55 0.4375-3.53125-2.59375-2.4375-40.25-38.0625 54.40625-10.40625 3.5-0.65625 1.53125-3.218749 23.75-50.031249z" transform="matrix(.3847154 0 0 .3847154 -.015080495 -2.5823358)" filter="url(#a)" fill="#dad645"/>
<path d="m54.101692 58.169492l-13.098325-24.045873-26.779416 5.712535 18.821379-19.887831-13.708237-23.703467 24.730576 11.754517 18.307259-20.362083-3.537041 27.152522 25.022745 11.119008-26.916589 5.026664-2.842351 27.234008z" transform="matrix(.7269511 -.3541159 .3541159 .7269511 6.2153524 51.41717)" filter="url(#a)" fill="#de0000"/>
</g>
</svg>
