<?xml version="1.0" encoding="UTF-8" standalone="no"?>
<svg xmlns:rdf="http://www.w3.org/1999/02/22-rdf-syntax-ns#" xmlns="http://www.w3.org/2000/svg" version="1.0" xmlns:cc="http://creativecommons.org/ns#" xmlns:xlink="http://www.w3.org/1999/xlink" viewBox="0 0 96 96" xmlns:dc="http://purl.org/dc/elements/1.1/">
<defs>
<filter id="b">
<feGaussianBlur stdDeviation="2.6432394366197185" in="SourceAlpha"/>
</filter>
</defs>
<metadata>
<rdf:RDF>
<cc:Work rdf:about="">
<dc:format>image/svg+xml</dc:format>
<dc:type rdf:resource="http://purl.org/dc/dcmitype/StillImage"/>
<cc:license rdf:resource="http://creativecommons.org/licenses/by-sa/3.0/"/>
<dc:title>feGaussianBlur filter primitive example</dc:title>
<dc:date>18 Jan 2008</dc:date>
<dc:creator>
<cc:Agent>
<dc:title>Felipe Corrêa da Silva Sanches</dc:title>
</cc:Agent>
</dc:creator>
<dc:rights>
<cc:Agent>
<dc:title>Felipe Corrêa da Silva Sanches</dc:title>
</cc:Agent>
</dc:rights>
<dc:subject>
<rdf:Bag>
<rdf:li>hexamines icon</rdf:li>
</rdf:Bag>
</dc:subject>
<dc:description>this is an image originally intended to be used in the hexamines game</dc:description>
<dc:publisher>
<cc:Agent>
<dc:title>Felipe Corrêa da Silva Sanches</dc:title>
</cc:Agent>
</dc:publisher>
<dc:identifier>c</dc:identifier>
<dc:source/>
<dc:relation/>
<dc:language/>
<dc:coverage/>
<dc:contributor>
<cc:Agent>
<dc:title/>
</cc:Agent>
</dc:contributor>
</cc:Work>
<cc:License rdf:about="http://creativecommons.org/licenses/by-sa/3.0/">
<cc:permits rdf:resource="http://creativecommons.org/ns#Reproduction"/>
<cc:permits rdf:resource="http://creativecommons.org/ns#Distribution"/>
<cc:requires rdf:resource="http://creativecommons.org/ns#Notice"/>
<cc:requires rdf:resource="http://creativecommons.org/ns#Attribution"/>
<cc:permits rdf:resource="http://creativecommons.org/ns#DerivativeWorks"/>
<cc:requires rdf:resource="http://creativecommons.org/ns#ShareAlike"/>
</cc:License>
</rdf:RDF>
</metadata>
<g>
<use xlink:href="#a" transform="translate(7.931917,8.4984822)" height="96" filter="url(#b)" width="96" y="0" x="0"/>
<path id="a" d="m54.101692 58.169492l-13.098325-24.045873-26.779416 5.712535 18.821379-19.887831-13.708237-23.703467 24.730576 11.754517 18.307259-20.362083-3.537041 27.152522 25.022745 11.119008-26.916589 5.026664-2.842351 27.234008z" fill-rule="evenodd" transform="matrix(1.0125024 -.493215 .493215 1.0125024 -13.326416 48.267724)" fill="#729fcf"/>
</g>
</svg>
