<?xml version="1.0" encoding="UTF-8" standalone="no"?>
<svg xmlns:rdf="http://www.w3.org/1999/02/22-rdf-syntax-ns#" xmlns="http://www.w3.org/2000/svg" version="1.1" xmlns:cc="http://creativecommons.org/ns#" viewBox="0 0 16 16" xmlns:dc="http://purl.org/dc/elements/1.1/">
<metadata>
<rdf:RDF>
<cc:Work rdf:about="">
<dc:format>image/svg+xml</dc:format>
<dc:type rdf:resource="http://purl.org/dc/dcmitype/StillImage"/>
</cc:Work>
</rdf:RDF>
</metadata>
<rect style="color:#000000" height="16" width="16" y="0" x="0" stroke-width="0" fill="none"/>
<path fill-rule="evenodd" fill="#e7e7e7" d="m2.457032 1.83008-0.626954 0.62695 5.542969 5.54297-5.542969 5.54101 0.626954 0.62891 5.542968-5.54297 5.542969 5.54297 0.626953-0.62891-5.542969-5.54101 5.542969-5.54297-0.626953-0.62695-5.542969 5.54297z"/>
</svg>
