<?xml version="1.0" encoding="UTF-8" standalone="no"?>
<svg xmlns:rdf="http://www.w3.org/1999/02/22-rdf-syntax-ns#" xmlns="http://www.w3.org/2000/svg" version="1.1" xmlns:cc="http://creativecommons.org/ns#" xmlns:xlink="http://www.w3.org/1999/xlink" viewBox="0 0 16 16" xmlns:dc="http://purl.org/dc/elements/1.1/">
<metadata>
<rdf:RDF>
<cc:Work rdf:about="">
<dc:format>image/svg+xml</dc:format>
<dc:type rdf:resource="http://purl.org/dc/dcmitype/StillImage"/>
</cc:Work>
</rdf:RDF>
</metadata>
<defs>
<rect id="a" height="3" width="1.4" stroke="#fff" y="-1.5" x="-.7" stroke-width=".4"/>
</defs>
<use xlink:href="#a" transform="translate(1.5 1.5)"/>
<use xlink:href="#a" transform="translate(1.5 4.75) rotate(10)"/>
<use xlink:href="#a" transform="translate(1.5 8) rotate(20)"/>
<use xlink:href="#a" transform="translate(1.5 11.25) rotate(10)"/>
<use xlink:href="#a" transform="translate(1.5 14.5)"/>
<use xlink:href="#a" transform="translate(4.75 1.5) rotate(10)"/>
<use xlink:href="#a" transform="translate(4.75 4.75) rotate(20)"/>
<use xlink:href="#a" transform="translate(4.75 8) rotate(60)"/>
<use xlink:href="#a" transform="translate(4.75 11.25) rotate(20)"/>
<use xlink:href="#a" transform="translate(4.75 14.5) rotate(10)"/>
<use xlink:href="#a" transform="translate(8 1.5) rotate(20)"/>
<use xlink:href="#a" transform="translate(8 4.75) rotate(60)"/>
<use xlink:href="#a" transform="translate(8 8) rotate(90)"/>
<use xlink:href="#a" transform="translate(8 11.25) rotate(60)"/>
<use xlink:href="#a" transform="translate(8 14.5) rotate(20)"/>
<use xlink:href="#a" transform="translate(11.25 1.5) rotate(10)"/>
<use xlink:href="#a" transform="translate(11.25 4.75) rotate(20)"/>
<use xlink:href="#a" transform="translate(11.25 8) rotate(60)"/>
<use xlink:href="#a" transform="translate(11.25 11.25) rotate(20)"/>
<use xlink:href="#a" transform="translate(11.25 14.5) rotate(10)"/>
<use xlink:href="#a" transform="translate(14.5 1.5)"/>
<use xlink:href="#a" transform="translate(14.5 4.75) rotate(10)"/>
<use xlink:href="#a" transform="translate(14.5 8) rotate(20)"/>
<use xlink:href="#a" transform="translate(14.5 11.25) rotate(10)"/>
<use xlink:href="#a" transform="translate(14.5 14.5)"/>
</svg>
