<?xml version="1.0" encoding="UTF-8" standalone="no"?>
<svg xmlns:rdf="http://www.w3.org/1999/02/22-rdf-syntax-ns#" xmlns="http://www.w3.org/2000/svg" version="1.1" xmlns:cc="http://creativecommons.org/ns#" viewBox="0 0 16 16" xmlns:dc="http://purl.org/dc/elements/1.1/">
<metadata>
<rdf:RDF>
<cc:Work rdf:about="">
<dc:format>image/svg+xml</dc:format>
<dc:type rdf:resource="http://purl.org/dc/dcmitype/StillImage"/>
</cc:Work>
</rdf:RDF>
</metadata>
<path fill="none" stroke="#646464" d="m4.5 0.5c6.5 0-0.5 15 6 15 2.5 0 5-2 5-4 0-5-15 2-15-7 0-2.5 2-4 4-4z"/>
<rect stroke-linejoin="round" fill-opacity=".4" height="3" width="3" stroke="#00f" y=".5" x="5.5" fill="#6464ff"/>
<rect stroke-linejoin="round" fill-opacity=".4" height="3" width="3" stroke="#00f" y="7.5" x="1.5" fill="#6464ff"/>
<rect stroke-linejoin="round" fill-opacity=".4" height="3" width="3" stroke="#00f" y="12.5" x="12.5" fill="#6464ff"/>
</svg>
