<?xml version="1.0" encoding="UTF-8" standalone="no"?>
<svg xmlns:rdf="http://www.w3.org/1999/02/22-rdf-syntax-ns#" xmlns="http://www.w3.org/2000/svg" version="1.1" xmlns:cc="http://creativecommons.org/ns#" xmlns:xlink="http://www.w3.org/1999/xlink" viewBox="0 0 15.292182 15.469867" xmlns:dc="http://purl.org/dc/elements/1.1/">
<metadata>
<rdf:RDF>
<cc:Work rdf:about="">
<dc:format>image/svg+xml</dc:format>
<dc:type rdf:resource="http://purl.org/dc/dcmitype/StillImage"/>
</cc:Work>
</rdf:RDF>
</metadata>
<g stroke-width=".2773579" stroke="#ffffff" transform="translate(-372.06367,-136.75914)">
<circle id="a" style="color:#000000" stroke-width=".2773579" transform="matrix(1.20571,0,0,1.20571,-78.24976,-27.879)" stroke="#fff" cy="137.9821" cx="375.0941" r="1.111868"/>
<use xlink:href="#a" transform="translate(8.561625 .49145)" height="1250" width="1250" y="0" x="0"/>
<use xlink:href="#a" transform="translate(11.84313,2.65475)" height="1250" width="1250" y="0" x="0"/>
<use xlink:href="#a" transform="translate(11.465,6.015863)" height="1250" width="1250" y="0" x="0"/>
<use xlink:href="#a" transform="translate(2.800431 .1644349)" height="1250" width="1250" y="0" x="0"/>
<use xlink:href="#a" transform="translate(11.808 -.0096427)" height="1250" width="1250" y="0" x="0"/>
<use xlink:href="#a" transform="translate(-.4334583 6.118019)" height="1250" width="1250" y="0" x="0"/>
<use xlink:href="#a" transform="translate(.2602591 9.383794)" height="1250" width="1250" y="0" x="0"/>
<use xlink:href="#a" transform="translate(6.0991 -.2204626)" height="1250" width="1250" y="0" x="0"/>
<use xlink:href="#a" transform="translate(.4371078 2.794418)" height="1250" width="1250" y="0" x="0"/>
<use xlink:href="#a" transform="translate(2.823264,2.99384)" height="1250" width="1250" y="0" x="0"/>
<use xlink:href="#a" transform="translate(2.2685,8.914454)" height="1250" width="1250" y="0" x="0"/>
<use xlink:href="#a" transform="translate(7.821966,3.036785)" height="1250" width="1250" y="0" x="0"/>
<use xlink:href="#a" transform="translate(8.506131,3.395216)" height="1250" width="1250" y="0" x="0"/>
<use xlink:href="#a" transform="translate(2.865657,4.495371)" height="1250" width="1250" y="0" x="0"/>
<use xlink:href="#a" transform="translate(5.940444,8.422506)" height="1250" width="1250" y="0" x="0"/>
<use xlink:href="#a" transform="translate(6.998359,5.075075)" height="1250" width="1250" y="0" x="0"/>
<use xlink:href="#a" transform="translate(7.573388,6.436901)" height="1250" width="1250" y="0" x="0"/>
<use xlink:href="#a" transform="translate(8.395772,9.33012)" height="1250" width="1250" y="0" x="0"/>
<use xlink:href="#a" transform="translate(8.885973,11.77538)" height="1250" width="1250" y="0" x="0"/>
<use xlink:href="#a" transform="translate(11.49834,9.064573)" height="1250" width="1250" y="0" x="0"/>
<use xlink:href="#a" transform="translate(-.009413 12.10337)" height="1250" width="1250" y="0" x="0"/>
<use xlink:href="#a" transform="translate(3.166048,12.23381)" height="1250" width="1250" y="0" x="0"/>
<use xlink:href="#a" transform="translate(5.944623,11.84999)" height="1250" width="1250" y="0" x="0"/>
<use xlink:href="#a" transform="translate(11.80662,12.10332)" height="1250" width="1250" y="0" x="0"/>
</g>
</svg>
