<?xml version="1.0" encoding="UTF-8" standalone="no"?>
<svg xmlns:rdf="http://www.w3.org/1999/02/22-rdf-syntax-ns#" xmlns="http://www.w3.org/2000/svg" version="1.1" xmlns:cc="http://creativecommons.org/ns#" xmlns:xlink="http://www.w3.org/1999/xlink" viewBox="0 0 15.99999 15.99999" xmlns:dc="http://purl.org/dc/elements/1.1/">
<metadata>
<rdf:RDF>
<cc:Work rdf:about="">
<dc:format>image/svg+xml</dc:format>
<dc:type rdf:resource="http://purl.org/dc/dcmitype/StillImage"/>
</cc:Work>
</rdf:RDF>
</metadata>
<defs>
<linearGradient id="d" y2="191.3432" xlink:href="#a" gradientUnits="userSpaceOnUse" x2="23.16458" y1="190.3311" x1="11.04291"/>
<linearGradient id="e" y2="190.0497" xlink:href="#a" gradientUnits="userSpaceOnUse" x2="25.59999" y1="190.7533" x1="7.859756"/>
<linearGradient id="b">
<stop stop-color="#c80000" offset="0"/>
<stop stop-color="#f99e9e" offset="1"/>
</linearGradient>
<linearGradient id="g" y2="201.604" xlink:href="#b" gradientUnits="userSpaceOnUse" x2="14.87818" y1="214.0368" x1="24.49481"/>
<linearGradient id="f" y2="193.8308" xlink:href="#b" gradientUnits="userSpaceOnUse" x2="22.91343" y1="185.4726" x1="14.56176"/>
<linearGradient id="a">
<stop stop-color="#5a5a5a" offset="0"/>
<stop offset="1"/>
</linearGradient>
<linearGradient id="c" y2="190.0497" xlink:href="#a" gradientUnits="userSpaceOnUse" x2="21.57254" y1="190.3311" x1="11.04291"/>
</defs>
<g transform="translate(-10.48885,-182.0497)">
<ellipse stroke-linejoin="round" style="color:#000000" fill-rule="evenodd" rx="6.611154" ry="6.515604" stroke="url(#e)" cy="190.0497" cx="18.48884" fill="url(#f)"/>
<path style="color:#000000" fill="none" stroke="url(#d)" d="m15.90515 187.466 5.16739 5.1674"/>
<path style="color:#000000" d="m21.07254 187.466-5.16739 5.1674" fill-rule="evenodd" stroke="url(#c)" fill="#fff"/>
<ellipse stroke-linejoin="round" style="color:#000000" rx="6.611154" transform="matrix(.8723531 0 0 .8723531 2.360048 9.005643)" stroke="url(#g)" ry="6.515604" cy="207.5353" cx="18.48884" fill="none"/>
<rect style="color:#000000" height="15.99999" width="15.99999" y="182.0497" x="10.48885" stroke-width=".531496" fill="none"/>
</g>
</svg>
