<?xml version="1.0" encoding="UTF-8" standalone="no"?>
<svg xmlns:rdf="http://www.w3.org/1999/02/22-rdf-syntax-ns#" xmlns="http://www.w3.org/2000/svg" version="1.1" xmlns:cc="http://creativecommons.org/ns#" viewBox="0 0 20 20" xmlns:dc="http://purl.org/dc/elements/1.1/">
<metadata>
<rdf:RDF>
<cc:Work rdf:about="">
<dc:format>image/svg+xml</dc:format>
<dc:type rdf:resource="http://purl.org/dc/dcmitype/StillImage"/>
</cc:Work>
</rdf:RDF>
</metadata>
<g transform="translate(-1125,-347)">
<path fill="#fff" d="m1144.5 357a9.5 9.5 0 0 1 -4.75 8.2272l-4.75-8.2272z"/>
<path fill="#fff" d="m1130.25 348.7728a9.5 9.5 0 0 1 9.5 0l-4.75 8.2272z"/>
<path fill="#99b6d4" d="m1139.75 365.2272a9.5 9.5 0 0 1 -9.5 0l4.75-8.2272z"/>
<path fill="#fff" d="m1130.25 365.2272a9.5 9.5 0 0 1 -4.75 -8.2272h9.5z"/>
<path fill="#99b6d4" d="m1125.5 357a9.5 9.5 0 0 1 4.75 -8.2272l4.75 8.2272z"/>
<path fill="#99b6d4" d="m1139.75 348.7728a9.5 9.5 0 0 1 4.75 8.2272h-9.5z"/>
<circle stroke="#000" cy="357" cx="1135" r="9.5" fill="none"/>
</g>
</svg>
