<?xml version="1.0" encoding="UTF-8" standalone="no"?>
<svg xmlns:rdf="http://www.w3.org/1999/02/22-rdf-syntax-ns#" xmlns="http://www.w3.org/2000/svg" version="1.1" xmlns:cc="http://creativecommons.org/ns#" viewBox="0 0 16 16" xmlns:dc="http://purl.org/dc/elements/1.1/">
<metadata>
<rdf:RDF>
<cc:Work rdf:about="">
<dc:format>image/svg+xml</dc:format>
<dc:type rdf:resource="http://purl.org/dc/dcmitype/StillImage"/>
</cc:Work>
</rdf:RDF>
</metadata>
<g fill="none">
<path stroke="#000" d="m15 6.5c-2 1.5-5 1.5-8-1.5"/>
<path stroke="#000" d="m6.5 15c1.5-2 1.5-5-1.5-8"/>
<path stroke="lime" d="m2 13c1-5 6-10 11-11"/>
<circle stroke="blue" cy="14" cx="2" r="1"/>
<circle stroke="blue" cy="2" cx="14" r="1"/>
</g>
</svg>
