<?xml version="1.0" encoding="UTF-8" standalone="no"?>
<svg xmlns:rdf="http://www.w3.org/1999/02/22-rdf-syntax-ns#" xmlns="http://www.w3.org/2000/svg" version="1.1" xmlns:cc="http://creativecommons.org/ns#" xmlns:xlink="http://www.w3.org/1999/xlink" viewBox="0 0 16.030304 16.000023" xmlns:dc="http://purl.org/dc/elements/1.1/">
<metadata>
<rdf:RDF>
<cc:Work rdf:about="">
<dc:format>image/svg+xml</dc:format>
<dc:type rdf:resource="http://purl.org/dc/dcmitype/StillImage"/>
</cc:Work>
</rdf:RDF>
</metadata>
<defs>
<linearGradient id="d" y2="78.83605" xlink:href="#a" gradientUnits="userSpaceOnUse" x2="262.5385" gradientTransform="translate(-.0158611 .0730141)" y1="74.38268" x1="266.6476"/>
<linearGradient id="b" y2="78.5" gradientUnits="userSpaceOnUse" x2="258.9182" y1="80.00585" x1="256.3262">
<stop stop-color="#fff" offset="0"/>
<stop stop-color="#aaa" offset="1"/>
</linearGradient>
<linearGradient id="e" y2="77.99037" xlink:href="#a" gradientUnits="userSpaceOnUse" x2="258.0151" gradientTransform="translate(-.0158611 .0730141)" y1="70.98074" x1="266.0303"/>
<linearGradient id="g" y2="80.14188" xlink:href="#a" gradientUnits="userSpaceOnUse" x2="250.665" gradientTransform="matrix(.939394 0 0 1 15.63564 3.573014)" y1="73.65818" x1="256.8945"/>
<linearGradient id="c" y2="71.03742" xlink:href="#a" gradientUnits="userSpaceOnUse" x2="256.5" gradientTransform="matrix(1 0 0 .982332 -.0158611 1.3452)" y1="69.71401" x1="261.0343"/>
<linearGradient id="a">
<stop stop-color="#5a5a5a" offset="0"/>
<stop offset="1"/>
</linearGradient>
<linearGradient id="f" y2="79.5" gradientUnits="userSpaceOnUse" x2="269.5485" gradientTransform="translate(.514439 .573014)" y1="79.5" x1="261.1073">
<stop offset="0"/>
<stop stop-color="#7f7f7f" offset=".35076979"/>
<stop stop-color="#bfbfbf" offset=".59668732"/>
<stop stop-color="#dfdfdf" offset=".78382427"/>
<stop stop-color="#fff" offset="1"/>
</linearGradient>
</defs>
<g transform="matrix(-1 0 0 1 266.0144 -69.07299)">
<path stroke-linejoin="round" style="color:#000000" d="m250.4841 75.57301c4.5303-1.51926 3.5303-3.01926 4.0303-4.01926h4c0.25 0.73709 1.3311 2.71442 2.5 2.97418l4.5 1v9.04508l-14-0.01926-1-1-0.0303-7.98074z" fill-rule="evenodd" stroke="url(#e)" stroke-linecap="round" fill="url(#g)"/>
<circle stroke-linejoin="round" style="color:#000000" stroke-width="1.3620667" fill-rule="evenodd" stroke-linecap="round" transform="matrix(.938759 0 0 .938488 13.33429 5.86879)" stroke="#000" cy="78.5" cx="258.5" r="3.5" fill="url(#b)"/>
<rect stroke-linejoin="round" style="color:#000000" fill-rule="evenodd" height="9" width="4" stroke="url(#d)" stroke-linecap="round" y="75.57301" x="261.5144" fill="url(#f)"/>
<path stroke-linejoin="round" d="m254.4841 71.58841v-2.01542h4v2.01542h-4z" fill-rule="evenodd" stroke="url(#c)" stroke-linecap="round" stroke-width=".9999997px" fill="#fff"/>
<path stroke-linejoin="round" d="m258.9841 75.32301c-1-1-4.5-1-5.5 0" stroke="#b1b1b1" stroke-linecap="round" stroke-width="1px" fill="none"/>
<circle style="color:#000000" stroke-width=".747" fill-rule="evenodd" transform="matrix(-1,0,0,1,321.0144,-55.92699)" cy="135" cx="64" r="1" fill="#fff"/>
<circle style="color:#000000" stroke-width=".747" fill-rule="evenodd" fill-opacity=".4472574" transform="matrix(-1.5,0,0,1.5,351.5144,-122.927)" cy="135" cx="64" r="1" fill="#fff"/>
</g>
</svg>
