<?xml version="1.0" encoding="UTF-8" standalone="no"?>
<svg xmlns:rdf="http://www.w3.org/1999/02/22-rdf-syntax-ns#" xmlns="http://www.w3.org/2000/svg" version="1.1" xmlns:cc="http://creativecommons.org/ns#" xmlns:xlink="http://www.w3.org/1999/xlink" viewBox="0 0 16.03125 16.005392" xmlns:dc="http://purl.org/dc/elements/1.1/">
<metadata>
<rdf:RDF>
<cc:Work rdf:about="">
<dc:format>image/svg+xml</dc:format>
<dc:type rdf:resource="http://purl.org/dc/dcmitype/StillImage"/>
</cc:Work>
</rdf:RDF>
</metadata>
<defs>
<linearGradient id="a" y2="1.491036" gradientUnits="userSpaceOnUse" x2="223.9659" gradientTransform="matrix(1.006993 0 0 1 -1.456289 .0155694)" y1="15.97338" x1="206.4689">
<stop stop-color="#5a5a5a" offset="0"/>
<stop offset="1"/>
</linearGradient>
</defs>
<g transform="rotate(90,184.5174,23.51385)">
<rect style="color:#000000" fill-rule="evenodd" height="4" width="4" y="13" x="212" fill="#ffbf00"/>
<rect style="color:#000000" fill-rule="evenodd" height="4" width="4" y="8" x="212" fill="#ff69bc"/>
<rect style="color:#000000" fill-rule="evenodd" height="4" width="4" y="8" x="207" fill="#fff"/>
<rect style="color:#000000" fill-rule="evenodd" height="4" width="3" y="13" x="217" fill="#c8c8c8"/>
<rect style="color:#000000" fill-rule="evenodd" height="4" width="4" y="3" x="212" fill="#f0fa00"/>
<path style="color:#000000" fill-rule="evenodd" fill="#a4602b" d="m217 8h4l-1 4h-3v-4z"/>
<rect style="color:#000000" fill-rule="evenodd" height="4" width="4" y="3" x="217" fill="#00c626"/>
<rect style="color:#000000" fill-rule="evenodd" height="4" width="4" y="13" x="207" fill="#8ab3de"/>
<rect style="color:#000000" fill-rule="evenodd" height="4" width="4" y="3" x="207" fill="#f00"/>
<path stroke-linejoin="round" style="color:#000000" d="m206.5035 2.5v15.03125h13.6573c-0.5174-1.44916-1.1304-4.30109 0.4406-7.03125 2.014-3.5 0-8 0-8h-14.0979zm5.035 0v15m5.0349-15v15m-10.0699-5h13.0909m1.5105-5h-14.6014" stroke="url(#a)" stroke-linecap="round" stroke-width=".9999999" fill="none"/>
<path d="m210.5035 16.5312h-3v-3" stroke="#bad2ec" stroke-width="1px" fill="none"/>
<path d="m210.5035 6.5312h-3v-3" stroke="#ff6565" stroke-width="1px" fill="none"/>
<path d="m215.5035 11.5312h-3v-3" stroke="#ffb5e0" stroke-width="1px" fill="none"/>
<path d="m215.5035 16.5312h-3v-3" stroke="#ffe185" stroke-width="1px" fill="none"/>
<path d="m215.5035 6.5312h-3v-3" stroke="#feffcd" stroke-width="1px" fill="none"/>
<path d="m220.5035 6.5312h-3v-3" stroke="#5cff7c" stroke-width="1px" fill="none"/>
<path d="m219.0035 11.5312h-1.5v-3" stroke="#d28b51" stroke-width="1px" fill="none"/>
<path d="m219.0035 16.5312h-1.5v-3" stroke="#fff" stroke-width="1px" fill="none"/>
</g>
</svg>
